 1000  mysqldump -h localhost -P 56033 -u adpoint -pDBImaniPoint#18 adpoint > adpoint-prod.sql
 1001  ls -al
 1002  more adpoint-prod.sql 
 1003  gzip adpoint-prod.sql 
 1004  ls -al
 1005  ls -al /build/
 1006  ls -al /build
 1007  ls -al
 1008  rm -f adpoint-prod.sql.gz 
 1009  ls -al
 1010  cd /var/www
 1011  ls -al
 1012  cd adpoint
 1013  pwd
 1014  ls -al
 1015  more /etc/nginx/sites-enabled/adpoint
 1016  du -d 1 -h 
 1017  cd pub
 1018  ls -al
 1019  du -d 1 -h 
 1020  cd media/
 1021  du -d 1 -h 
 1022  cd catalog/
 1023  du -d 1 -h 
 1024  cd product/
 1025  du -d 1 -h 
 1026  cd cache
 1027  pwd
 1028  ls
 1029  cd html
 1030  php bin/magento indexer:reindex
 1031  php bin/magento cache:flush
 1032  php bin/magento indexer:reindex
 1033  php bin/magento cache:flush
 1034  php bin/magento cache:clean
 1035  ls
 1036  cd /var/www
 1037  ls
 1038  cd adpoint
 1039  ls
 1040  cd /etc/nginx/
 1041  ls -al modules-enabled/
 1042  ls -al
 1043  cd..
 1044  cd ..
 1045  cd adpoint
 1046  dir
 1047  ls
 1048  cd html
 1049  ls
 1050  cd app/
 1051  ls
 1052  git status
 1053  git pull
 1054  cd..
 1055  cd ..
 1056  php bin/magento indexer:reindex
 1057  php bin/magento cache:flush
 1058  du -hs ./
 1059  ls
 1060  df -h
 1061  ls
 1062  sudo su -
 1063  cd html/app/
 1064  git status
 1065  ls -lt code/Webmate/Adpoint/view/frontend/templates/catalog/product/view/addtocart.phtml
 1066  logout
 1067  cd html
 1068  pwd
 1069  ls -la
 1070  bin/magento cache:clean
 1071  ls
 1072  cd html
 1073  ls
 1074  php bin/magento setup:static-content:deploy 
 1075  php bin/magento setup:static-content:deploy
 1076  php bin/magento cache:clean
 1077  php bin/magento cache:flush
 1078  ls
 1079  git status
 1080  cd app/
 1081  git status
 1082  php bin/magento setup:static-content:deploy
 1083  cd..
 1084  cd ..
 1085  php bin/magento setup:static-content:deploy
 1086  cd app/
 1087  dir
 1088  git status
 1089  git reset --hard
 1090  git pull
 1091  git status
 1092  git pull
 1093  cd..
 1094  cd ..
 1095  php bin/magento indexer:reindex
 1096  php bin/magento cache:flush
 1097  php bin/magento setup:static-content:deploy
 1098  ls
 1099  cd app/
 1100  git status
 1101  git commit -m "display price show up "
 1102  git commit -m "display price show up :: dari Pak Ndaru"
 1103  git pull
 1104  git status
 1105  git add
 1106  git add -A
 1107  git commit -m "Show default price : dr Pak Ndaru"
 1108  git pull
 1109  git push
 1110  git pull
 1111  git reset --hard
 1112  cd /var/www
 1113  ls -al
 1114  cd adpoint
 1115  cd var/log/
 1116  ls -al
 1117  tail -100 system.log 
 1118  tail -100 system.log | more
 1119  tail -500 exception.log | more
 1120  grep error exception.log | more
 1121  grep error exception.log | tail -100 | more
 1122  sudo more /etc/elasticsearch/elasticsearch.yml
 1123  cd ..
 1124  cd
 1125  ls -al
 1126  cd yofi
 1127  sudo ls -al /etc/elasticsearch/
 1128  cd /var/www
 1129  cd adpoint
 1130  vi html/app/code/Webmate/Adpoint/view/frontend/templates/catalog/product/view/addtocart.phtml
 1131  cd code
 1132  ls
 1133  cd app
 1134  cd code
 1135  cd Webmate
 1136  cd Adpoint/view/frontend/templates/
 1137  cd catalog/
 1138  cd product/
 1139  cd view
 1140  vi addtocart.phtml 
 1141  curl localhost:9200
 1142  hostname
 1143  ls
 1144  cd ..
 1145  ls
 1146  curl -X GET 'http://localhost:9200'
 1147  cd html/app
 1148  git status
 1149  ls -lt design/frontend/Webmate/Adpoint/Magento_Theme/templates/partners.phtml
 1150  git diff design/frontend/Webmate/Adpoint/Magento_Theme/templates/partners.phtml
 1151  git log
 1152  logout
 1153  cd /var/wwww
 1154  cd /var/www
 1155  ls
 1156  cd adpoint
 1157  ls
 1158  cd app
 1159  ls
 1160  cd code
 1161  ls
 1162  cd ..
 1163  ls
 1164  cd etc
 1165  ls
 1166  cat config.php
 1167  vi config.php 
 1168  ls
 1169  vi env.php 
 1170  mysqldump -u adpoint > ~/adpoint-23-jan.sql
 1171  mysqldump adpoint > ~/adpoint-23-jan.sql
 1172  mysqldump --databases adpoint > ~/adpoint-23-jan.sql
 1173  mysqldump -u adpoint --databases adpoint > ~/adpoint-23-jan.sql
 1174  mysqldump -u adpoint -p --databases adpoint > ~/adpoint-23-jan.sql
 1175  cd ~
 1176  cd /var/www/adpoint
 1177  ls
 1178  cd ..
 1179  tar -czf adpoint.tar.gz adpoint
 1180  tar -czf ~/adpoint.tar.gz adpoint
 1181  ls
 1182  cd ~/
 1183  ls adpoint*
 1184  ls -al adpoint*
 1185  tar -czf adpoint.tar.gz /var/www/adpoint/
 1186  tar -czf adpoint.tar.gz /var/www/adpoint
 1187  cd /var/www/adpoint
 1188  ls
 1189  tar -czf ~/ad.tar.gz .
 1190  ls
 1191  cat elasticsearch-2.4.6/config/logging.yml 
 1192  cat elasticsearch-2.4.6/config/elasticsearch.yml 
 1193  sudo nano elasticsearch-2.4.6/config/elasticsearch.yml 
 1194  nano elasticsearch-2.4.6/config/elasticsearch.yml 
 1195  cd html
 1196  bin/magento i:res
 1197  bin/magento i:rei
 1198  bin/magento c:c
 1199  bin/magento c:f
 1200  set
 1201  env
 1202  print LESSOPEN
 1203  echo LESSOPEN
 1204  echo $LESSOPEN
 1205  echo $ESHOME
 1206  echo $ESHOMEd
 1207  curl -i -XGET 'localhost:9200'
 1208  find logs
 1209  ls
 1210  cd elasticsearch-2.4.6
 1211  ls
 1212  cd logs
 1213  ls
 1214  vi elasticsearch.log
 1215  mv elasticsearch.log es.log
 1216  ls
 1217  vi elasticsearch.log
 1218  curl -i -XGET 'localhost:9200/_search?q=pusat'
 1219  curl -i -XGET 'localhost:9200/_search?q=pusat[B' > result.txt
 1220  vi result.txt 
 1221  ls
 1222  history
 1223  cd ..
 1224  ls
 1225  cd config/
 1226  ls
 1227  vi logging.yml 
 1228  ls
 1229  cd ..
 1230  ls
 1231  cd logs
 1232  ls
 1233  pwd
 1234  vi es.log
 1235  history
 1236  history | grep 'elastic'
 1237  cd html
 1238  bin/magento c:c
 1239  ls -la
 1240  mysql
 1241  mysql -u adpoint -p
 1242  bin/magento setup:di:compile
 1243  bin/magento c:c
 1244  cd /var/log/
 1245  ls -la
 1246  cd nginx/
 1247  ls-la
 1248  ls -la
 1249  nano adpoint_error.log
 1250  cd --
 1251  ls -la
 1252  cdht
 1253  cd html
 1254  ls -la
 1255  bin/magento c:f
 1256  tmux
 1257  mysql -u adpoint -p
 1258  cd html/pub/
 1259  ls -la
 1260  cd static/
 1261  ls -la
 1262  cd adminhtml/
 1263  ls -la
 1264  cd Magento/
 1265  ls -la
 1266  cd backend/
 1267  ls -la
 1268  cd en_US
 1269  ls -la
 1270  cd ../../
 1271  cd backend/
 1272  cd id_ID/
 1273  ls-la
 1274  ls -la
 1275  cd ../
 1276  ls -la
 1277  cd ..
 1278  ls -la
 1279  cd ../
 1280  ls -la
 1281  cd Magento/
 1282  ls -la
 1283  cd ../../../
 1284  cd static/
 1285  ls -la
 1286  cd frontend/
 1287  ls -la
 1288  cd Webmate/
 1289  ls -la
 1290  cd Adpoint/
 1291  ls-la
 1292  sl -la
 1293  ls -la
 1294  cd id_ID/
 1295  ls -la
 1296  cd ../../../
 1297  cd ../
 1298  ls -la
 1299  cd adminhtml/Magento/
 1300  ls -la
 1301  cd backend/
 1302  ls -la
 1303  cd en_US/
 1304  ls -la
 1305  cd ../../../../
 1306  ls -la
 1307  cd _cache/
 1308  ls -la
 1309  cd merged/
 1310  ls -la
 1311  cd ../../
 1312  ls-la
 1313  cd ../../
 1314  bin/magento c:c
 1315  bin/magento setup:static-content:deploy
 1316  bin/magento setup:static-content:deploy id_ID
 1317  cd html
 1318  bin/magento config:set dev/debug/debug_logging 0 --lock
 1319  bin/magento c:f 
 1320  cd var/log/
 1321  ls -la
 1322  tail debug.log 
 1323  bin/magento config:set dev/debug/debug_logging 1 --lock
 1324  cd -
 1325  bin/magento config:set dev/debug/debug_logging 1 --lock
 1326  bin/magento c:f 
 1327  cd var/log/
 1328  tail debug.log 
 1329  cd html
 1330  bin/magento setup:static-content:deploy id_ID
 1331  bin/magento setup:static-content:deploy
 1332  bin/magento setup:static-content:deploy id_ID
 1333  cd app/design/frontend/
 1334  cd Webmate/Adpoint/
 1335  cd web/
 1336  ls -la
 1337  cd js/
 1338  ls -la
 1339  nano custom.min.js
 1340  ls -la
 1341  cd ../../../
 1342  cd ../../
 1343  bin/magento setup:static-content:deploy id_ID
 1344  sudo systemctl status mysql
 1345  sudo supervisorctl status
 1346  sudo vigr -s
 1347  sudo supervisorctl status
 1348  ls -la
 1349  cd /var/log/nginx/
 1350  ls -la
 1351  nano adpoint_error.log
 1352  mysql -u adpoint -p
 1353  bin/magento setup:upgrade
 1354  bin/magento setup:di:compile
 1355  bin/magento c:c
 1356  bin/magento c:f
 1357  w
 1358  sudo su - adpoint
 1359  tmux attach
 1360  w
 1361  nslookup k44.now.im
 1362  w
 1363  ps ax | grep pts
 1364  sudo kill -9 7121
 1365  su hardiyanto
 1366  df -H
 1367  cd /dev/sdb
 1368  cd /mnt/disks/sdb
 1369  ls
 1370  sudo vi /etc/passwd
 1371  su adpointdev
 1372  ls
 1373  cd html
 1374  git commit -m ""
 1375  cd app/
 1376  git commot -m 
 1377  git commit -m "File revisi :: Pak Daril"
 1378  git pull
 1379  git push
 1380  git status
 1381  git add -A
 1382  git commit -m "File revisi :: Pak Daril"
 1383  git pull
 1384  git push
 1385  git pull
 1386  git status
 1387  ls
 1388  cd html
 1389  php bin/magento indexer:reindex
 1390  php bin/magento cache:clean
 1391  php bin/magento indexer:reindex
 1392  php bin/magento cache:clean
 1393  ls
 1394  cd html
 1395  dir
 1396  cd app/
 1397  dir
 1398  git status
 1399  git config --get core.excludesfile
 1400  ls
 1401  ~/.gitignore_global
 1402  git config
 1403  ls
 1404  git status
 1405  ls
 1406  dir
 1407  git ignore etc/*
 1408  git
 1409  touch .gitignore
 1410  dir
 1411  touch .gitignore
 1412  ls
 1413  git ignore --list
 1414  git ignored
 1415  git cegck-ignore
 1416  check-ignore
 1417  git check-igonre
 1418  git check-igonore
 1419  git check-ignore
 1420  git status
 1421  git pull
 1422  dir
 1423  cd design/
 1424  dir
 1425  cd frontend/
 1426  cd we
 1427  dir
 1428  cd Webmate/
 1429  cd ad
 1430  dir
 1431  cd adpoint
 1432  cd Adpoint
 1433  dir
 1434  cd Magento_Theme
 1435  dir
 1436  cd layout/
 1437  cd..
 1438  cd ..
 1439  dir
 1440  cd..
 1441  cd ..
 1442  cd web/
 1443  dir
 1444  cd images/
 1445  move ubiiklan_grey.png pub/static/frontend/Webmate/Adpoint/id_ID/images/*
 1446  mv ubiiklan_grey.png pub/static/frontend/Webmate/Adpoint/id_ID/images/*
 1447  mv ubiiklan_grey.png ../../pub/static/frontend/Webmate/Adpoint/id_ID/images/*
 1448  m
 1449  ls
 1450  cd html
 1451  dir
 1452  cd app/
 1453  git status
 1454  git pull
 1455  ls
 1456  cd html
 1457  dir
 1458  cd app/
 1459  dir
 1460  git status
 1461  git pull
 1462  git status
 1463  git pull
 1464  git reset --hard
 1465  ls
 1466  cd ..
 1467  php bin/magento indexer:reindex
 1468  ls
 1469  cd html
 1470  ls
 1471  cd app/
 1472  ls
 1473  git status
 1474  ls
 1475  cd design/
 1476  dir
 1477  cd frontend/
 1478  dir
 1479  cd we
 1480  dir
 1481  cd webmate
 1482  cd ..
 1483  git status
 1484  git pull
 1485  git status
 1486  git reset --hard 472fe67080
 1487  lsa
 1488  ls
 1489  cd html
 1490  ls
 1491  git status
 1492  ls
 1493  git pull
 1494  cd app/
 1495  git pull
 1496  ls
 1497  cd app
 1498  cd html
 1499  cd app/
 1500  git status
 1501  git commit -m "Penyesuaian file prod."
 1502  git pull
 1503  git push
 1504  git status
 1505  git add
 1506  git add -A
 1507  git commit -m "Penyesuaian file prod."
 1508  git pull
 1509  git push
 1510  ls
 1511  cd ad
 1512  cd html
 1513  dir
 1514  cd app
 1515  git status
 1516  git pull
 1517  ls
 1518  cd html
 1519  ls
 1520  cd app/
 1521  ls
 1522  git status
 1523  ls
 1524  git status
 1525  ls
 1526  cd html
 1527  ls
 1528  cd app/
 1529  ls
 1530  git status
 1531  git pull
 1532  exit
 1533  ls
 1534  cd html
 1535  cd app/
 1536  git status
 1537  git pull
 1538  git reset --hard 45e8d72a1b
 1539  git pull
 1540  bin php/magento setup:upgrade
 1541  cd..
 1542  cd ..
 1543  bin php/magento setup:upgrade
 1544  cd app
 1545  git status
 1546  git reset --hard 45e8d72a1b
 1547  git reset --hard 9bb1351d0f
 1548  git reset --hard 45e8d72a1b
 1549  ls
 1550  cd html
 1551  dir
 1552  cd ao
 1553  cd app/
 1554  git status
 1555  git pull
 1556  git reset --hard 9bb1351d0f
 1557  git reset --hard 45e8d72a1b
 1558  git pull
 1559  cd ..
 1560  php bin/magento app:config:import
 1561  git status
 1562  git pull
 1563  cd app/
 1564  git status
 1565  git pull
 1566  php bin/magento setup:upgrade
 1567  cd..
 1568  cd ..
 1569  cd html
 1570  cd app
 1571  git status
 1572  git pull
 1573  git reset --hard 9bb1351d0f
 1574  git reset --hard 45e8d72a1b
 1575  ls
 1576  cd html
 1577  cd app/
 1578  git status
 1579  git reset --hard 45e8d72a1b
 1580  git reset --hard
 1581  git status
 1582  git reset --hard 45e8d72a1b
 1583  cd ..
 1584  php bin/magento cache:clean\
 1585  php bin/magento cache:clean
 1586  git reset --hard
 1587  git reset --hard 45e8d72a1b
 1588  cd app/
 1589  git reset --hard 45e8d72a1b
 1590  git reset --hard a0a8c1954e
 1591  git status
 1592  git reset --hard
 1593  git reset --hard 45e8d72a1b
 1594  cd..
 1595  cd ..
 1596  cd..
 1597  exit
 1598  cd html
 1599  ls
 1600  cd var/log/
 1601  ls
 1602  tail -f exception.log 
 1603  tail -f debug.log 
 1604  tail -f system.log 
 1605  tail -f update.cron.log 
 1606  tail -f update.log 
 1607  tail -f reindex.log 
 1608  tail -f setup.cron.log 
 1609  tail -f magento.cron.log 
 1610  git status
 1611  ls
 1612  cd html
 1613  ls
 1614  git status
 1615  history
 1616  cd /var/log
 1617  tail -f exception.log
 1618  ls
 1619  cd ~
 1620  ls
 1621  cd gtnk
 1622  cd html
 1623  ls
 1624  cd var
 1625  ls
 1626  cd log
 1627  ls
 1628  vi exception.log 
 1629  ls -ltr
 1630  tail -f system.log
 1631  tail reindex.log 
 1632  tail cron_index.log 
 1633  tail update.log 
 1634  date
 1635  history
 1636  git log
 1637  cd ~
 1638  cd html
 1639  ls
 1640  git log
 1641  cd app
 1642  git log
 1643  ls
 1644  cd html
 1645  cd app/
 1646  git status
 1647  cd..
 1648  cd ..
 1649  composer install
 1650  bin/magneto setup:upgrade
 1651  php bin/magento setup:upgrade
 1652  php bin/magento setup:di:compile
 1653  composer update
 1654  git reset --hard 45e8d72a1b
 1655  cd app/
 1656  git reset --hard 45e8d72a1b
 1657  cd..
 1658  cd ..
 1659  php bin/magento cache:clean
 1660  git status
 1661  cd..
 1662  cd app
 1663  git status
 1664  git pull
 1665  git status
 1666  git reset --hard 45e8d72a1b
 1667  git pull
 1668  cd htm
 1669  cd html
 1670  ls
 1671  cd var
 1672  ls
 1673  cd log
 1674  ls
 1675  ls -ltr
 1676  tail -f debug.log 
 1677  cd ..
 1678  cd app
 1679  cd ..
 1680  vi index.php 
 1681  cp index.php index.22.2.php
 1682  vi index.php 
 1683  ls
 1684  vi test.php
 1685  vi inf.php
 1686  ls
 1687  cd pub
 1688  ls
 1689  cd .
 1690  cd ..
 1691  bin/magento deploy:mode:show
 1692  ls
 1693  df
 1694  ls
 1695  tar -czf ~/app.tar.gz app
 1696  cd ~
 1697  ls
 1698  ls -al
 1699  ls -alh
 1700  cd ~
 1701  cd html
 1702  cd app
 1703  history
 1704  q
 1705  history | grep composer
 1706  ls -ald .
 1707  sudo su
 1708  ls
 1709  cd ..
 1710  ls
 1711  cp index.22.2.php index.php
 1712  cd pub
 1713  ls
 1714  vi index.php 
 1715  cd ..
 1716  vi index.php
 1717  vi index.22.2.php 
 1718  cd pub
 1719  vi index.php 
 1720  cd ~
 1721  ls
 1722  mv app.tar.gz app.22.2.tar.gz
 1723  cd ~
 1724  cd html
 1725  ls
 1726  cd app
 1727  rsync -avz -e "ssh -p 22247" adpoint@debug.adpoint.id:/home/adpoint/html/app/ .
 1728  cd ~
 1729  ls
 1730  cp app.22.2.tar.gz app.tar.gz
 1731  tar -xzf app.tar.gz 
 1732  ls
 1733  cd app
 1734  ls
 1735  cd etc
 1736  ls
 1737  cp env.php ~/html/app/etc/
 1738  cd ..
 1739  cd ~
 1740  cd html
 1741  cd bin
 1742  cd ..
 1743  bin/magento cache:clean
 1744  bin/magento setup:static-content:deploy
 1745  grep -sri "existsQueryFactory" .
 1746  vi ./vendor/smile/elasticsuite/src/module-elasticsuite-core/etc/di.xml
 1747  ls -al ./vendor/smile/elasticsuite/src/module-elasticsuite-core/etc/di.xml
 1748  cd ..
 1749  cd vendor
 1750  cd html
 1751  ls
 1752  cd ~
 1753  ls
 1754  cd html
 1755  cd home
 1756  ls
 1757  cd vendor/
 1758  cd smile/
 1759  ls
 1760  ls -al
 1761  cd ..
 1762  ls
 1763  cd vendor/
 1764  ls
 1765  cd smile/
 1766  ls
 1767  ls -al
 1768  cd ..
 1769  ls -al
 1770  tar -czf ~/smile.tar.gz smile
 1771  cd smile
 1772  history
 1773  q
 1774  history | grep rsync
 1775  ls
 1776  rm -rf *
 1777  rsync -avz -e "ssh -p 22247" adpoint@debug.adpoint.id:/home/adpoint/html/vendor/smile/ .
 1778  ls
 1779  cd mageplaza/
 1780  ls
 1781  cd module-smtp/
 1782  ls
 1783  cd ..
 1784  ls -al
 1785  rsync -avz -e "ssh -p 22247" adpoint@debug.adpoint.id:/home/adpoint/html/vendor/mageplaza/ .
 1786  rsync -avz --delete -e "ssh -p 22247" adpoint@debug.adpoint.id:/home/adpoint/html/vendor/mageplaza/ .
 1787  cd ..
 1788  ls
 1789  bin/magento app:config:import
 1790  cd static
 1791  ls
 1792  cd pub
 1793  cd ..
 1794  cd pub
 1795  cd static/
 1796  cd frontend/
 1797  cd Webmate/
 1798  cd Adpoint/
 1799  cd id_ID/
 1800  ls
 1801  cd ~
 1802  cd html
 1803  bin/magento c:c
 1804  bin/magento c:f
 1805  bin/magento setup:static-content:deploy
 1806  bin/magento deploy:mode:show
 1807  bin/magento deploy:mode:set production
 1808  history
 1809  ls
 1810  cd html
 1811  ls
 1812  git status
 1813  git pull
 1814  ls
 1815  cd html
 1816  cd app/
 1817  git status
 1818  git pull
 1819  git status
 1820  git reset --hard
 1821  git status
 1822  git pull origin master
 1823  git reset --hard 19b6e75441
 1824  git pull origin master
 1825  cd ..
 1826  php bin/magento setup:di:compile
 1827  git pull
 1828  git pull origin master
 1829  git branch origin/master
 1830  git status
 1831  cd app/
 1832  git status
 1833  git pull
 1834  git reset --hard
 1835  git pull
 1836  git add 
 1837  git pull origin/master
 1838  git pull
 1839  git pull origin master
 1840  git pull
 1841  git clean
 1842  git reset --hard
 1843  git pull
 1844  git status
 1845  git pull
 1846  git pull origin/master
 1847  git fetch --all
 1848  git reset --hard origin/master
 1849  ls
 1850  cd design/
 1851  ls
 1852  fr
 1853  cd frontend/
 1854  ls
 1855  cd we
 1856  cd webmate
 1857  ls
 1858  cd Webmate
 1859  ls
 1860  cd Adpoint
 1861  ls
 1862  cd web
 1863  cd images
 1864  ls
 1865  cd/
 1866  cd ..
 1867  php bin/magento setup:di:compile
 1868  ls
 1869  cd html
 1870  php bin/magento setup:di:compile
 1871  ls
 1872  php bin/magento setup:di:compile
 1873  cd html
 1874  cd app/
 1875  cd ..
 1876  php bin/magento setup:di:compile
 1877  git status
 1878  cd app/
 1879  git status
 1880  git pull
 1881  ls
 1882  cd html
 1883  dir
 1884  cd app/
 1885  ls
 1886  dir
 1887  git status
 1888  cd..
 1889  cd ..
 1890  php bin/magento clean:cache
 1891  php bin/magento cache:clean
 1892  bin/magento cache:clean
 1893  bin/magento cache:flush
 1894  php bin/magento setup:static-content:deploy
 1895  php bin/magento reindexer:reindex
 1896  php bin/magento indexer:reindex
 1897  bin/magento cache:clean
 1898  bin/magento cache:flush
 1899  git reset --hard 22feb82689
 1900  cd app/
 1901  git reset --hard 22feb82689
 1902  git pull
 1903  ls
 1904  cd html
 1905  php bin/magento setup:static-content:deploy
 1906  sudo php bin/magento setup:static-content:deploy
 1907  php bin/magento setup:static-content:deploy
 1908  ls
 1909  cd html
 1910  dir
 1911  php bin/magento setup:static-content:deploy
 1912  php bin/magento setup:static-content:deploy -f
 1913  php bin/magento cache:clean
 1914  php bin/magento setup:static-content:deploy
 1915  php bin/magento deploy:mode:set production
 1916  php bin/magento setup:static-content:deploy
 1917  cd html
 1918  php bin/magento setup:static-content:deploy
 1919  dir
 1920  cd html
 1921  php bin/magento setup:static-content:deploy
 1922  php bin/magento cache:clean
 1923  ls
 1924  cd pub/
 1925  cd..
 1926  cd ..
 1927  php bin/magento setup:static-content:deploy
 1928  ls
 1929  cd pub_temp
 1930  ls
 1931  mv static/ pub/static
 1932  mv static/ pub/static/
 1933  mv static/ /pub/static/
 1934  mv static/ /pub/static
 1935  mv static/ /pub/static/toolbar
 1936  cd ..
 1937  mv pub_temp/static/ pub/static/toolbar
 1938  ls
 1939  mv pub_temp/static/ pub/static/toolbar
 1940  php bin/magento setup:static-content:deploy
 1941  php bin/magento clean:cache
 1942  php bin/magento cache:clean
 1943  php bin/magento setup:di:compile
 1944  php bin/magento cache:clean
 1945  cd pub_temp
 1946  ls
 1947  cd..
 1948  cd ..
 1949  mv pub_temp/* pub
 1950  ls
 1951  cd pub_temp
 1952  ls
 1953  cd ..
 1954  rm pub_temp
 1955  del pub_temp
 1956  php bin/magento setup:static-content:deploy
 1957  php bin/magento setup:di:compile
 1958  cd app/
 1959  git pull
 1960  cd ..
 1961  dir
 1962  php bin/magento setup:static-content:deploy
 1963  cd pub
 1964  ls
 1965  cd static/
 1966  cd toolbar/
 1967  cd ..
 1968  mv static/toolbar/* static/*
 1969  mv static/toolbar/* static/
 1970  ls
 1971  cd html
 1972  cd p
 1973  cd pub
 1974  ls
 1975  cd static
 1976  ls
 1977  cd toolbar/
 1978  ls
 1979  adminhtml/* ../adminhtml
 1980  ls adminhtml/
 1981  adminhtml/Magento ../adminhtml/Magento
 1982  cd ..
 1983  cd toolbar/
 1984  ls
 1985  adminhtml ../
 1986  cd ..
 1987  cd ..
 1988  php bin/magento setup:static-content:deploy
 1989  php bin/magento setup:di:compile
 1990  php bin/magento cache:clean
 1991  php bin/magento setup:static-content:deploy
 1992  php bin/magento 
 1993  php bin/magento cache:flush
 1994  ls
 1995  cd html
 1996  ls
 1997  history
 1998* 
 1999  history > hist.txt
